<text lang="en" id="en">
<p>
<s id="en.1.1" crr="pt.1.1" atype="t1:1"><w id="1" crr="1" atype="t1:1">The</w> <w id="2" crr="2" atype="t1:1">teeth</w> <w id="3" crr="4" atype="t1:1">of</w> <w id="4" crr="" atype="t0:1">the</w> <w id="5" crr="5" atype="t1:1">oldest</w> <w id="6" crr="6" atype="t1:1">orangutan</w></s>
</p>
<p>
<s id="en.2.1" crr="pt.2.1" atype="t1:1"><w id="7" crr="10" atype="t1:1">A</w> <w id="8" crr="9" atype="t1:1">new</w> <w id="9" crr="8" atype="t1:1">species</w> <w id="10" crr="" atype="t0:1">of</w> <w id="11" crr="17" atype="t1:1">hominid</w> <w id="12" crr="12" atype="t1:1">found</w> <w id="13" crr="13" atype="t1:1">in</w> <w id="14" crr="14" atype="t1:1">Thailand</w> <w id="15" crr="15" atype="t1:1">,</w> <w id="16" crr="16" atype="t1:1">with</w> <w id="17" crr="18" atype="t1:2">an</w> <w id="18" crr="18" atype="t1:2">estimated</w> <w id="19" crr="21" atype="t1:1">age</w> <w id="20" crr="7" atype="t1:1">of</w> <w id="21" crr="19" atype="t1:3">12</w> <w id="22" crr="19" atype="t1:3">million</w> <w id="23" crr="19" atype="t1:3">years</w> <w id="24" crr="22" atype="t1:1">,</w> <w id="25" crr="23" atype="t1:5">has</w> <w id="26" crr="23" atype="t1:5">become</w> <w id="27" crr="" atype="t0:1">the</w> <w id="28" crr="23" atype="t1:5">most</w> <w id="29" crr="23" atype="t1:5">distant</w> <w id="30" crr="23" atype="t1:5">relative</w> <w id="31" crr="26" atype="t1:1">of</w> <w id="32" crr="24" atype="t1:1">today's</w> <w id="33" crr="29" atype="t1:1">orangutans</w> <w id="34" crr="31" atype="t1:1">(</w> <w id="35" crr="32" atype="t1:1">Pongo</w> <w id="36" crr="33" atype="t1:1">pygmaeus</w> <w id="37" crr="34" atype="t1:1">)</w> <w id="38" crr="35" atype="t1:1">.</w></s>
<s id="en.2.2" crr="pt.2.2" atype="t1:1"><w id="39" crr="38" atype="t1:1">A</w> <w id="40" crr="37" atype="t1:3">group</w> <w id="41" crr="" atype="t0:1">of</w> <w id="42" crr="37" atype="t1:3">French</w> <w id="43" crr="47" atype="t1:6">researchers</w> <w id="44" crr="47" atype="t1:6">connected</w> <w id="45" crr="52" atype="t1:1">with</w> <w id="46" crr="" atype="t0:1">the</w> <w id="47" crr="47" atype="t1:6">European</w> <w id="48" crr="47" atype="t1:6">Synchrotron</w> <w id="49" crr="47" atype="t1:6">Radiation</w> <w id="50" crr="47" atype="t1:6">Facility</w> <w id="51" crr="48" atype="t1:1">(</w> <w id="52" crr="49" atype="t1:1">ESRF</w> <w id="53" crr="50" atype="t1:1">)</w> <w id="54" crr="51" atype="t1:1">arrived</w> <w id="55" crr="37" atype="t1:3">at</w> <w id="56" crr="36" atype="t1:1">this</w> <w id="57" crr="53" atype="t1:1">conclusion</w> <w id="58" crr="59" atype="t1:1">by</w> <w id="59" crr="57" atype="t1:1">comparing</w> <w id="60" crr="56" atype="t1:1">the</w> <w id="61" crr="55" atype="t1:1">18</w> <w id="62" crr="58" atype="t1:1">teeth</w> <w id="63" crr="" atype="t0:1">of</w> <w id="64" crr="" atype="t0:1">the</w> <w id="65" crr="60" atype="t1:2">fossil</w> <w id="66" crr="62" atype="t1:1">with</w> <w id="67" crr="" atype="t0:1">the</w> <w id="68" crr="60" atype="t1:2">dentition</w> <w id="69" crr="" atype="t0:1">of</w> <w id="70" crr="66" atype="t1:1">other</w> <w id="71" crr="67" atype="t1:2">ancient</w> <w id="72" crr="67" atype="t1:2">primates</w> <w id="73" crr="68" atype="t1:1">.</w></s>
</p>
<p>
<s id="en.3.1" crr="pt.3.1" atype="t1:1"><w id="74" crr="108" atype="t1:1">By</w> <w id="75" crr="106" atype="t1:1">means</w> <w id="76" crr="80" atype="t1:1">of</w> <w id="77" crr="71" atype="t1:1">a</w> <w id="78" crr="70" atype="t1:1">technique</w> <w id="79" crr="69" atype="t1:8">called</w> <w id="80" crr="69" atype="t1:8">microtomography</w> <w id="81" crr="76" atype="t1:1">,</w> <w id="82" crr="69" atype="t1:8">they</w> <w id="83" crr="69" atype="t1:8">made</w> <w id="84" crr="69" atype="t1:8">three-dimensional</w> <w id="85" crr="69" atype="t1:8">models</w> <w id="86" crr="72" atype="t1:1">of</w> <w id="87" crr="" atype="t0:1">the</w> <w id="88" crr="69" atype="t1:8">structure</w> <w id="89" crr="73" atype="t1:1">of</w> <w id="90" crr="69" atype="t1:8">each</w> <w id="91" crr="83" atype="t1:1">tooth</w> <w id="92" crr="85" atype="t1:1">and</w> <w id="93" crr="88" atype="t1:1">of</w> <w id="94" crr="" atype="t0:1">the</w> <w id="95" crr="89" atype="t1:3">lower</w> <w id="96" crr="89" atype="t1:3">jawbone</w> <w id="97" crr="86" atype="t1:1">of</w> <w id="98" crr="" atype="t0:1">the</w> <w id="99" crr="89" atype="t1:3">male</w> <w id="100" crr="90" atype="t1:1">and</w> <w id="101" crr="" atype="t0:1">of</w> <w id="102" crr="" atype="t0:1">the</w> <w id="103" crr="97" atype="t1:1">female</w> <w id="104" crr="91" atype="t1:1">of</w> <w id="105" crr="" atype="t0:1">the</w> <w id="106" crr="95" atype="t1:1">new</w> <w id="107" crr="94" atype="t1:1">species</w> <w id="108" crr="96" atype="t1:1">,</w> <w id="109" crr="100" atype="t1:4">baptized</w> <w id="110" crr="100" atype="t1:4">as</w> <w id="111" crr="100" atype="t1:4">Lufengpithecus</w> <w id="112" crr="100" atype="t1:4">chiangmuanensis</w> <w id="113" crr="101" atype="t1:1">,</w> <w id="114" crr="102" atype="t1:1">with</w> <w id="115" crr="98" atype="t1:1">a</w> <w id="116" crr="104" atype="t1:4">resolution</w> <w id="117" crr="107" atype="t1:1">of</w> <w id="118" crr="104" atype="t1:4">1</w> <w id="119" crr="104" atype="t1:4">millionth</w> <w id="120" crr="103" atype="t1:1">of</w> <w id="121" crr="105" atype="t1:1">a</w> <w id="122" crr="104" atype="t1:4">meter</w> <w id="123" crr="110" atype="t1:1">.</w></s>
</p>
<p>
<s id="en.4.1" crr="pt.3.2" atype="t1:1"><w id="124" crr="112" atype="t1:4">"</w> <w id="125" crr="111" atype="t1:1">We</w> <w id="126" crr="112" atype="t1:4">will</w> <w id="127" crr="112" atype="t1:4">never</w> <w id="128" crr="112" atype="t1:4">be</w> <w id="129" crr="117" atype="t1:1">certain</w> <w id="130" crr="116" atype="t1:1">that</w> <w id="131" crr="118" atype="t1:3">we</w> <w id="132" crr="118" atype="t1:3">are</w> <w id="133" crr="118" atype="t1:3">dealing</w> <w id="134" crr="" atype="t0:1">with</w> <w id="135" crr="119" atype="t1:1">a</w> <w id="136" crr="128" atype="t1:1">direct</w> <w id="137" crr="127" atype="t1:1">ancestor</w> <w id="138" crr="130" atype="t1:1">,</w> <w id="139" crr="122" atype="t1:7">but</w> <w id="140" crr="122" atype="t1:7">it</w> <w id="141" crr="122" atype="t1:7">is</w> <w id="142" crr="122" atype="t1:7">something</w> <w id="143" crr="122" atype="t1:7">very</w> <w id="144" crr="122" atype="t1:7">close</w> <w id="145" crr="122" atype="t1:7">"</w> <w id="146" crr="123" atype="t1:1">,</w> <w id="147" crr="124" atype="t1:4">says</w> <w id="148" crr="124" atype="t1:4">Jean-Jacques</w> <w id="149" crr="124" atype="t1:4">Jaeger</w> <w id="150" crr="134" atype="t1:1">,</w> <w id="151" crr="115" atype="t1:1">a</w> <w id="152" crr="124" atype="t1:4">paleontologist</w> <w id="153" crr="125" atype="t1:1">from</w> <w id="154" crr="" atype="t0:1">the</w> <w id="155" crr="129" atype="t1:1">University</w> <w id="156" crr="" atype="t0:1">of</w> <w id="157" crr="139" atype="t1:1">Montpellier</w> <w id="158" crr="140" atype="t1:1">,</w> <w id="159" crr="141" atype="t1:1">in</w> <w id="160" crr="142" atype="t1:1">France</w> <w id="161" crr="143" atype="t1:1">,</w> <w id="162" crr="144" atype="t1:1">and</w> <w id="163" crr="147" atype="t1:2">one</w> <w id="164" crr="" atype="t0:1">of</w> <w id="165" crr="" atype="t0:1">the</w> <w id="166" crr="147" atype="t1:2">authors</w> <w id="167" crr="136" atype="t1:1">of</w> <w id="168" crr="120" atype="t1:1">this</w> <w id="169" crr="149" atype="t1:1">work</w> <w id="170" crr="150" atype="t1:1">,</w> <w id="171" crr="151" atype="t1:1">published</w> <w id="172" crr="152" atype="t1:1">in</w> <w id="173" crr="153" atype="t1:1">Nature</w> <w id="174" crr="154" atype="t1:1">.</w></s>
<s id="en.4.2" crr="pt.3.3" atype="t1:1"><w id="175" crr="172" atype="t1:1">The</w> <w id="176" crr="156" atype="t1:4">hypothesis</w> <w id="177" crr="156" atype="t1:4">gains</w> <w id="178" crr="156" atype="t1:4">strength</w> <w id="179" crr="155" atype="t1:1">from</w> <w id="180" crr="158" atype="t1:1">the</w> <w id="181" crr="156" atype="t1:4">fact</w> <w id="182" crr="157" atype="t1:1">that</w> <w id="183" crr="164" atype="t1:1">there</w> <w id="184" crr="170" atype="t1:4">was</w> <w id="185" crr="170" atype="t1:4">fossilized</w> <w id="186" crr="170" atype="t1:4">pollen</w> <w id="187" crr="170" atype="t1:4">together</w> <w id="188" crr="171" atype="t1:1">with</w> <w id="189" crr="188" atype="t1:1">the</w> <w id="190" crr="173" atype="t1:1">teeth</w> <w id="191" crr="174" atype="t1:1">,</w> <w id="192" crr="175" atype="t1:1">suggesting</w> <w id="193" crr="176" atype="t1:1">that</w> <w id="194" crr="177" atype="t1:1">the</w> <w id="195" crr="179" atype="t1:1">new</w> <w id="196" crr="178" atype="t1:1">species</w> <w id="197" crr="187" atype="t1:1">lived</w> <w id="198" crr="183" atype="t1:3">in</w> <w id="199" crr="165" atype="t1:1">a</w> <w id="200" crr="183" atype="t1:3">tropical</w> <w id="201" crr="184" atype="t1:1">forest</w> <w id="202" crr="185" atype="t1:1">,</w> <w id="203" crr="181" atype="t1:1">just</w> <w id="204" crr="183" atype="t1:3">like</w> <w id="205" crr="163" atype="t1:1">today's</w> <w id="206" crr="189" atype="t1:1">orangutans</w> <w id="207" crr="191" atype="t1:1">.</w></s>
</p>
</text>
